Case #1: 0.000000000000
Case #2: 0.618033988750
Case #3: -0.000000000000
Case #4: 0.999999996000
Case #5: -0.766464139033
Case #6: -0.040379012225
Case #7: 0.373091438928
Case #8: 0.358220966273
Case #9: 0.131435078344
Case #10: -0.788077294613
Case #11: -0.619221983969
Case #12: -0.207646581660
Case #13: -0.556795407634
Case #14: 0.062711298798
Case #15: -0.543433690705
Case #16: 0.521693338112
Case #17: -0.655630791087
Case #18: 0.677584000723
Case #19: 0.054251748128
Case #20: -0.161320423488
Case #21: 0.548047324175
Case #22: 0.741149288232
Case #23: 0.162638126491
Case #24: -0.730703363639
Case #25: -0.343843156470
Case #26: -0.305868332981
Case #27: 0.138205576147
Case #28: 0.290670910428
Case #29: 0.406891861735
Case #30: -0.225822071562
Case #31: 0.224667051158
Case #32: 0.710270081924
Case #33: -0.381012124071
Case #34: -0.083228091066
Case #35: -0.399878194443
Case #36: -0.311135187560
Case #37: -0.720367775133
Case #38: -0.104326517760
Case #39: 0.198875744229
Case #40: 0.073026244992
Case #41: 0.036875655437
Case #42: -0.491476442243
Case #43: -0.212768876959
Case #44: -0.046703278521
Case #45: -0.023570462172
Case #46: -0.372393190585
Case #47: 0.601113630272
Case #48: 0.538592221150
Case #49: 0.207430597919
Case #50: -0.712371713462
Case #51: 0.170510212825
Case #52: 0.070587007645
Case #53: -0.523326115178
Case #54: -0.489524836728
Case #55: -0.253089635576
Case #56: 0.506545277619
Case #57: 0.692565761623
Case #58: -0.714206477407
Case #59: 0.296245078318
Case #60: 0.469506201302
Case #61: 0.329130212121
Case #62: -0.315342721808
Case #63: 0.134027983274
Case #64: 0.597976572201
Case #65: 0.535850044907
Case #66: 0.301871566954
Case #67: -0.278944500906
Case #68: 0.269134067338
Case #69: 0.028094639340
Case #70: 0.164931090886
Case #71: 0.228180319709
Case #72: -0.215021110556
Case #73: -0.029622809619
Case #74: 0.311213175596
Case #75: -0.476656592718
Case #76: -0.603728728699
Case #77: 0.282817814275
Case #78: 0.718204077995
Case #79: 0.570461035477
Case #80: -0.605007019567
Case #81: 0.582719639917
Case #82: -0.532283651009
Case #83: 0.496640764015
Case #84: -0.461752898131
Case #85: -0.412434264777
Case #86: -0.756840181455
Case #87: -0.562084780531
Case #88: -0.671690131535
Case #89: -0.297972832003
Case #90: -0.416916767211
Case #91: 0.262819300338
Case #92: 0.089920080101
Case #93: 0.746809403454
Case #94: 0.524898718436
Case #95: -0.423993410124
Case #96: -0.647826611884
Case #97: 0.248059190633
Case #98: 0.311637737550
Case #99: -0.390056713037
Case #100: -0.472376643570
