﻿Dataset 20
1) লেখাটি পড়লাম। অনেক মূল্যবান তথ্যে ভরা। সমবায়ের প্রধান কাজের ক্ষেত্র কৃষি, বাংলাদেশে তা ফড়িয়া, পরিবহন মালিক-শ্রমিক, রাস্তায় রাস্তায় জেঁকে বসা চাঁদাবাজের কারণে উচিত মূল্য থেকে বঞ্চিত।
2) আগে চাঁদাবাজি, ফরমালিনবাজি থেকে এ দেশকে দ্রুত আরোগ্য লাভ করতে হবে এবং এরপর বড় বড় কৃষি অঞ্চল এবং মৎস্য আহরণ এলাকায় গড়ে তোলা যাবে সমবায় খাদ্য প্রক্রিয়াকরণ এবং প্যাকেটজাতকরণ শিল্প, যা থেকে পণ্য নিজস্ব পরিবহনে বড় বড় শহরে এবং বিদেশে পাঠানো বা রফতানি করে গ্রামের ক্ষুদ্র চাষী থেকে শহুরে বেকারের লাভজনক ব্যবসা বা চাকরি হতে পারে।
3) সমবায়ের উপর এমন সুন্দর ও তথ্যভিত্তিক লেখা আমি আগে কখনও দেখিনি। সমবায়ের মাধ্যমে স্বনির্ভর ও টেকসই অর্থনীতি গড়ার এমন সম্ভাবনা অবশ্যই কাজে লাগাতে হবে।
4) টেকসই অর্থনীতিতে অবদান রাখতে হলে সমবায়কে সরকারের পক্ষ থেকে আরও অধিক প্রেরণা দিতে হবে এবং সমবায় প্রতিষ্ঠানসমূহের মধ্যে ও সততা ও দক্ষতার নিদর্শন প্রদর্শন থাকতে হবে। সমবায়ে অসমবায়ীর অনুপ্রবেশ এবং রাজনৈতিক হস্তক্ষেপ বন্ধ করতে হবে যে কোনো মূল্যে।
5) লেখাটিতে সমবায়ের বর্তমান অবস্থা কেবল তুলে ধরা হয়নি, সমবায় সমিতিগুলোর ভাবমূর্তি কীভাবে উন্নত করা যেতে পারে সে ব্যাপারে দিকনির্দেশনা দেওয়া হযেছে। ট্রান্সপারেন্সি ইন্টারন্যাশনাল যখন এসব বিষয়ে গভর্নেন্সের অভাবের কথা তুলে ধরছে, তখন এ ধরনের একটি লেখা সময়োপযোগী বটে।
6) বিসিএস কোঅপারেটিভ অফিসারদের কঠোর পরিশ্রম করা উচিত যাতে সমবায়গুলোকে টেকসই উন্নয়নের জন্য অবদান রাখতে গড়ে তুলতে পারেন।
7) বিজ্ঞান একটাই, আর সেটা হল বাস্তবকে তথ্য ও যুক্তি দিয়ে প্রমাণ করা। যার ভিত্তিতে মানুষ তাঁর বৈষয়িক কাজগুলো করে থাকে। এখানে ‘বাদী’ বা ‘মনষ্ক’ ইত্যাদির কোন সুযোগ আছে কি?
8) মানুষ ‘বিজ্ঞান’ এবং তাঁর ‘মন’ এই দুইয়ের সমন্বয়ে চলে – এখানে সমন্বয় কথাটি লক্ষ্য করুন। মন যা চায় তা কোন চিন্তা-ভাবনা ছাড়া করতে গিয়ে সমস্যায় পড়তে হতে পারে বুঝেই মানুষ বিজ্ঞান দিয়ে যাচাই করে। এখানে ‘বাদী’ বা ‘মনষ্ক’ কথাগুলো কেউ কেউ তুলতে পারেন, কিন্তু যদি যথার্থই বিজ্ঞান চর্চা করা হয় তাতে ‘বাদী’ বা ‘মনষ্ক’ এসব দিয়ে কিছুই আসে যায় না।
9) ধর্মগ্রন্থগুলোতে যে ভবিষ্যদ্বাণী ছিল তা কি আপনি মানেন? ধর্মগ্রন্থ বলতে সবগুলো ধর্মের প্রধান কিতাবগুলোকেই বুঝিয়েছি। এই ব্যাপারটা একটু পরিষ্কার করলে ভালো হয়।
10) আপনার লেখা আমার খুব ভালো লাগে। হিজড়াদের নিয়ে আপনার লেখা বইটির নাম জানতে চা্ই। অনুগ্রহ করে জানালে কৃতজ্ঞ থাকব। আপনার মেইল আইডিটা দয়া করে একটু জানাবেন।
11) ধর্ম সম্পূর্ণ বিশ্বাসের ব্যাপার আর বিজ্ঞান পুরোপুরি যুক্তির। বিজ্ঞানের বিষয়গুলি না দেখলে বা যুক্তি না দিলে আমরা মেনে নিই না; অর্থাৎ বিশ্বাস করি না বা অবিশ্বাস থেকে যায়।
12) ধর্মকে যারা যুক্তিযুক্ত করতে চান তারা নিজেরাই কি প্রথমে ধর্ম অবিশ্বাস করছেন না, যুক্তি খুঁজে ফিরছেন না? একটু ভেবে দেখুন তো। আর তাই খোঁড়া যুক্তি দিয়ে প্রথমে নিজেকে অতঃপর অন্যদেরকে আশ্বস্ত করার ব্যর্থ চেষ্টা করছেন! তাই নয় কি?
13) আমি যদি বলি পড়েছি তাইলেই বা আপনি মানবেন কেন, তাই না? আমার জ্ঞান নিয়ে পরীক্ষা না হয় নাই নিলেন, আমি লেখক হিসেবে একটি লেখা পত্রিকায় লিখেছি – তার ভিত্তিতে বরং আলোচনা করুন।
14) যাহোক, নরেন্দ্র মোদী একজন পলিটিশিয়ান, আবোল-তাবোল বলতেই পারেন। আপনি তো তা নন। তিনি যা বলেছেন তাতে আমাদের বিশ্বাস করতে হবে না। কিন্তু বুদ্ধিমান মানুষ হিসেবে সত্য খুঁজে বের করার ক্ষমতা আমাদের থাকা উচিত।
15) এতদিন জানতাম, সূর্যের একটি দিব্য তেজের অংশ থেকে কর্ণের জন্ম। ‘স্টার প্লাস’ এবং ‘স্টার জলসা’তেও সে রকমটাই দেখলাম। তাহলে কি এতদিন ভুল জানলাম আর দেখলাম?
16) ‘স্টার প্লাস’ এবং ‘স্টার জলসা’ কোনো অথেনটিক বই বা রেফারেন্স নয়। আপনি ‘মহাভারত’ খুলে পড়ুন এবং দেখুন কীভাবে কর্ণের জন্ম হয়েছিল বলে লেখা আছে। আমি আরেক জনের উত্তরে রেফারেন্স দিয়েছিলাম, এখানেও আরেকটু বিস্তৃতভাবে দিলাম।
17) কৃত্তিবাস যেমন বাল্মীকি রামায়ণ বাংলায় অনুবাদ করতে গিয়ে কিছু নিজের মনগড়া কাহিনিনী ঢুকিয়ে দিয়েছে, ঠিক সে রকম কাশীদাসও ‘বেদব্যাস মহাভারত’ বাংলা করতে গিয়ে মূল মহাভারতে কিছু স্বরচিত কাহিনি ঢুকিয়ে দিয়েছে।
18) ৩০ লাখ না মারা গিয়ে যদি ৩ লাখ হয়, ২ লাখ ধর্ষণ না করে যদি ২ হাজার হয়, তাহলে কি আমরা ধরে নিতে পারবো পাকিস্তানি সৈন্য ও তাদের সহযোগীরা মহান ছিল? পাকি বীর্যজাতের দল কি মনে করে সংখ্যা নিয়ে ত্যানা পেঁচিয়ে তাদের জন্ম পবিত্র হবে?
19) তবে এই বিতর্ক কিন্তু একটা দিক থেকে বেশ সুবিধাজনক। যারা এই সংখ্যা কমানো নিয়ে যুক্তি চালায়, ওদের জন্ম পরিচয় জানার জন্য ডিএনএ টেস্টের কোনো দরকার নেই। ওরা যে ওদের শুয়োর পিতার উত্তরাধিকার, তাদের যুক্তি প্রয়োগ তার প্রমাণ।
20) হিটলারের ফাইনাল সল্যুশন যদি ১৯৪৩ থেকে শুরু করে ১৯৪৫এ এসে ৬০ লক্ষ মানুষ মারতে পারে, তাহলে পাকিরা নয় মাসে ৩০ লক্ষ মানুষ মেরে ফেলেছে বললে আপনারা কষ্ট ক্যান পান জানতে বড় ইচ্ছা করে। আর আপনাদের এই কষ্টের পেছনেই লুকিয়ে আছে ক্যান ঠিক তেতাল্লিশ বছর পরেও এমন পোস্ট মানুষকে লিখতে হচ্ছে!
21) ফর ইওর কাইন্ড ইনফো, জিউ হলোকাস্টের ডেথ টোল নিয়ে প্রশ্ন তোলাটাও জেনোসাইড ডিনায়াল হিসেবে আইনের আওতায় আসে ইজরাইলে। আমাদের এমন কোনো আইন করা নেই বলেই আপনাদের এ জাতীয় বুদ্ধিজীবিতা দেখে আমাদের সুশীল আলোচনা করে সময় নষ্ট করতে হচ্ছে।
22) যাদের সর্বোচ্চ ত্যাগের বিনিময়ে এই স্বাধীনতা, যে স্বাধীনতা বিক্রি করে আজ অনেকে বুদ্ধিজীবিী– সেই শহীদের তালিকার কথা বললেই চেতনাজীবীদের গায়ে জ্বর চলে আসে। ভুয়া মুক্তিযোদ্ধা সার্টিফিকেট নিয়ে ভোগবিলাস করা যায় কিন্তু শহীদের নাম জানতে চাইলে আইনের ভয় দেখায়।
23) কী তাহলে লুকাতে চান? শহীদদের তালিকার সঙ্গে সঙ্গে মুক্তিযুদ্ধের নামে কল্পকাহিনি ও ঠাকুরমার ঝুলি যা প্রচলিত আছে তা বের হয়ে যাবে– এই ভয়েই কি তাহলে এত আস্ফালন?
24) খালেদা জিয়ার বক্তব্যের পর লক্ষ্য করলাম, এক পক্ষ ব্লাসফেমি ল এবং অপর পক্ষ ডিনায়াল ল দাবি করছে।বাকস্বাধীনতার যে সীমা আছে এ থেকে সম্পূর্ণ প্রমাণিত। শেষ করতে চাই মোস্তফা সরয়ার ফারুকির স্ট্যাটাস দিয়ে–
25) মুখোমুখি দুই পক্ষই মাইকে বাজাচ্ছে্। চালাও, চালাতে থাক। সব কিছু ভুলে নির্মম হয়ে এগুতে থাক। আর কিছু পথ পাড়ি দেবার পর পৃথিবীটা হবে ধর্মান্ধমুক্ত অথবা ধর্মহীনমুক্ত।
26) আমরা সবাই শুধু খালেদার সংখ্যাতত্ত্ব নিয়ে ব্যাস্ত কেন? একঅ সভায় খালেদা বলেছেন, স্বাধীনতা সংগ্রামে শেখ মুজিবের কোন অবদান নেই, জিয়া রেডিও ঘোষনা না দিলে স্বাধীনতা যুদ্ধ হতই না, দেশ স্বাধীন হতো না। এই পাগলামির প্রতিবাদও করা উচিৎ। আর সংখ্যা নিয়ে সংসয়ের মূল সুর ছিলো ” পাকিস্তানিরা এত খারাপ নয়, তারা এত মানুষ মারতেই পারে না”।
27) যাদের সর্বোচ্চ ত্যাগের বিনিময়ে এই স্বাধীনতা, যে স্বাধীনতা বিক্রি করে আজ অনেকে বুদ্ধিজীবিী– সেই শহীদের তালিকার কথা বললেই চেতনাজীবীদের গায়ে জ্বর চলে আসে। ভুয়া মুক্তিযোদ্ধা সার্টিফিকেট নিয়ে ভোগবিলাস করা যায় কিন্তু শহীদের নাম জানতে চাইলে আইনের ভয় দেখায়।
28) খালেদা জিয়া ভালোভাবেই জানেন যে, ইলেকশনের মাধ্যমে তিনি ক্ষমতায় যেতে পারবেন না। তাই তিনি এমন ভান করছেন যে, তিনি এখন ইলেকশনের পক্সে রয়েছেন।
29) আমিও কিন্তু শহীদ মুক্তিযোদ্ধা পরিবারের সদস্য, ম্যাডাম। কিন্তু সত্যি কথাই বলেছেন যেখানে দিন দিন মুক্তিযোদ্ধাদের সংখ্যা কমার কথা, সেখানে উল্টো তা বৃদ্ধি পাচ্ছে, এটা কীভাবে সম্ভব?
30) খালেদা যখন কথা বলছিলেন, তখন তাঁর বডি ল্যাঙ্গুয়েজ বলে দেয় যে, তাঁর দেশ পাকিস্তান। আমি বাংলাদেশে এমন অনেক পাকিস্তানির দেখা পেয়েছি যারা দেখতে বাঙালি, কিন্তু তাদের ভেতরটা পাকিস্তানি।
31) কত শহীদ হয়েছিল তার একটা হিসাব কিন্তু বঙ্গবন্ধু সরকার করেছিল। ওই সময় মুক্তিযোদ্ধারা, এমপি, ইউনিয়ন পরিষদ ইত্যাদির মাধ্যমে সারাদেশ চষে বেড়িয়ে সম্ভবত ৫০হাজার মতো শহীদের নাম পাওয়া গিয়েছিল এবং প্রতি শহীদের পরিবারকে ২০০০ টাকা করে দেয়া হয়েছিল। তাই শহীদ কতো হয়েছিল তার একটা ধারনা পাওয়া যায়। এরপর এখনও সেটা করা সম্ভব। করা হচ্ছে না কেন?
32) মুক্তিযোদ্ধার তালিকাটাই তো কত সমস্যায় রয়েছে।! এটা সব সময়েই আমরা বলি, ‘নাম না জানা লাখো শহীদ’’–নাম না জানার কারণটা কি সবাই বোঝেন? ৭১এর মার্চ থেকে মে পর্যন্ত সময়ে পাক বাহিনী যেভাবে নির্বিচারে মানুষ হত্যা করেছে, সব বাড়িঘর, দোকান-পাট পুড়িয়ে দিয়েছে, সেখানে গণনা করা কি কারও পক্ষে সম্ভব ছিল? অনেক পরিবারে কেউ বেঁচে নেই। তাদের পরিচয় বা সংখ্যা পাওয়া যাবে কি?
33) তাই গণনা না করেই সম্পূর্ণ অনুমানের ভিত্তিতেই ৩০ লক্ষ শহীদের কথা বলা হয়। কেউ দাবি করেনি গণনা করে এর ভিন্নতর সংখ্যা প্রমাণের কথা। দ্বিতীয় বিশ্বযুদ্ধে নিহত ২ কোটি মানুষ কে গণনা করেছে?
34) সোজা বাংলায় একটা কথা বলি, এমন বিকৃত মানসিকতা ও ন্যূনতম জ্ঞানশূন্য ব্যক্তির (বেগম খালেদা জিয়া) রাজনীতি করার কোনো অধিকার নেই॥
35) ব্লগার আহমেদ রাজীব হায়দার হত্যা মামলার রায় ঘোষণা করে সবাইকেই ‘আইন হাতে তুলে নেওয়ার বিপদ’ সম্পর্কে সতর্ক করেছেন একজন বিচারক।
36) ব্লগার খুনের প্রথম মামলার রায়েও ঢাকার আদালত বলেছে, রাজীব হত্যাকাণ্ডে প্ররোচনাদাতা হিসেবে মুফতি রাহমানীকে পাঁচ বছরের কারাদণ্ড দেওয়া হয়েছে।
37) প্রাথমিকে ৯১ হাজার প্রতিষ্ঠানের সবাই পাস।
38) মানুষের খারাপ করা উচিত না।
39) মানুষের ভাল করা উচিত না।
40) ২০১৫ সালে আইনশৃঙ্খলা রক্ষাকারী বাহিনীর পরিচয়ে ৫৫ জনকে আটক করা হয়েছে।
41) প্রধানমন্ত্রী শেখ হাসিনা ধ্বংসাত্মক রাজনীতি ও নির্বাচন বয়কটের সংস্কৃতি পরিহার করে পৌরসভা নির্বাচনে অংশ নেওয়ায় বাংলাদেশ জাতীয়তাবাদী দলের (বিএনপি) প্রশংসা করেছেন।
42) "যারা দুর্নীতি করে টাকা আয় করেছে" : এই সরকারের সময়ে টাকা কামায় নাই এমন বেকুব কি আওয়ামী লীগে আছে?
43) ১৭ কোটী মানুষকে স্হিতিশীলতার মাঝে আনার কোন চেস্টা আওয়ামী লীগ করছে না।
44) দেশ বেশ শান্তিতেই এগিয়ে যাচ্ছে । 
45) আপনার পোস্টটি আরো বেশি মুগ্ধকর। 
46) রিভিউ ভালো হয়েছে। 
47) জানোয়ারের দৃষ্টান্ত মূলক শাস্তি হোক । 
48) মেয়েদেরও সংযত হওয়া সময়ের দাবি। 
49) ফরমালিন মুক্ত খাবারের জন্য কঠোর আন্দোলন গড়ে তুলতে হবে।
50) ধন্যবাদ আপনাকে ভাই ।