# ব্লগার আহমেদ রাজীব হায়দার হত্যা মামলার রায় ঘোষণা করে সবাইকেই ‘আইন হাতে তুলে নেওয়ার বিপদ’ সম্পর্কে সতর্ক করেছেন একজন বিচারক। #
# ব্লগার খুনের প্রথম মামলার রায়েও ঢাকার আদালত বলেছে, রাজীব হত্যাকাণ্ডে প্ররোচনাদাতা হিসেবে মুফতি রাহমানীকে পাঁচ বছরের কারাদণ্ড দেওয়া হয়েছে। #
# প্রাথমিকে ৯১ হাজার প্রতিষ্ঠানের সবাই পাস।  #
# মানুষের খারাপ করা উচিত না।  #
# "যারা দুর্নীতি করে টাকা আয় করেছে" : এই সরকারের সময়ে টাকা কামায় নাই এমন বেকুব কি আওয়ামী লীগে আছে?  #
# ১৭ কোটী মানুষকে স্হিতিশীলতার মাঝে আনার কোন চেস্টা আওয়ামী লীগ করছে না।  #
# দেশ বেশ শান্তিতেই এগিয়ে যাচ্ছে ।  #
# আপনার পোস্টটি আরো বেশি মুগ্ধকর।  #
# রিভিউ ভালো হয়েছে।  #
#  জানোয়ারের দৃষ্টান্ত মূলক শাস্তি হোক ।  #
#  মেয়েদেরও সংযত হওয়া সময়ের দাবি।  #
#  ফরমালিন মুক্ত খাবারের জন্য কঠোর আন্দোলন গড়ে তুলতে হবে।  #
#  ধন্যবাদ আপনাকে ভাই ।  #
#  খুপ কষ্ট লাগে বুঝি ?  #
#  বাংলা থেকে রাজাকার নিপাত যাক ।  #
#  চরম চরম চরম ধন্যবাদ।  #
#  আমরা বাঙালী আমরা স্বাধীন।  #
#  ছবিগুলো দেখে একটা গান গাইতে ইচ্ছা করতেছে।  #
#  শাস্তি দেখে মনে হলো খুবই সামান্য।  #
#  এগুলি কি ছাগলামী বলা যায়না?   #
#  দূঘটনা অবশ্যই দূঘটনা... এটাকে যদি বলেন যে গজব তবে সেটা পুরাই বোকামী ।  #
#  এড্রেস হোটেলে আগুন লেগেছে এবং হতাহতের কোন খবর এখন পযন্ত পাওয়া যাইনাই।  #
#  আমার মিথ্যা বলেই কী লাভ?  #
# ধর্ম ভীরু হওয়া ভাল কিন্তু ভাই ধর্মান্ধ হওয়া ভালো না।  #
# দূঘটনা মানুষের ভুলের থেকে হয়। এটা গজব না।   #
# মানলাম আপনি নিজে বানাননি এবং এই সব সাইটের থেকেই লিখেছেন।  #
# গত কয়েক বছরে মক্কায় হজে প্রায় ৩০০০ এর ও বেশি হাজী মারা গেছেন।  #
# মানবিক ভালোবাসা থেকেই কথাগুলো বললাম। ভালো থাকুন।  #
# আল্লাহ আমাদেরকে জাহান্নাম থেকে রক্ষা করুন। আমীন।  #
# ছোট হলেও রিভিউ ভালো হয়েছে।  #
# অল্প কথায় মুভির পুরো আকর্ষণ ফুটিয়েছেন।  #
#  কিছু কমু না।  #
#  আমি গতকাল দেখে আসলাম।পাগল ভক্ত তো তাই ভালই লাগছে।  #
#  সমস্ত মুভির গানগুলো ছাড়া বড়জোড় ১৫ মিনিট দেখার মত।  #
#   আমিও মুভি দেখে পুরাই হতাস। এখন প্রশ্ন হলো নিচে নামছে টা কে... শাহরুখ না রোহিত????  #
#  ধুর ফালতু মুভি! সেই হিসাবে এই মুভির গান দেখাই উত্তম, কি বলেন ?  #
# ধন্যবাদ ভাই.... টাকা এবং সময় দুইটাই বাচানোর জন্য... #
# হের মুভি দ্যাহেন ক্যান....এর চেয়ে ছাগলের দৌঁড়-ঝাঁপ দেখলে ভালো করতেন.... আমি দেহা বাদ দিছি বহুত আগত..... #
# মুভিটিতে যদিও একদম স্যাটিসফায়েড না কিন্ত কিছু ভালো সিন ও আছে।  #
# আমি দেখছি। এতোটা খারাপ হয় নাই।  #
# আমি এখনও দেখি নাই তবে দেখার আগ্রহ জন্মাল।  #
# এই রিভিউ পড়ে না দেখার কোন উপায় আছে?  #
#  রিভিউ পড়ে মজা পেলাম।বলিউডে এখন মূল্যায়ন করার মতো সিনেমা হয় কয়টা আর!!!  #
# হায় ! হায় !!! একটাও দেখি নাই। দেখতে হবে। #
# ধীরে ধীরে দেখে ফেলুন, ভাল লাগবে ।  #
#  আমি হাসতে হাসতে শেষ দেইখা!  #
#  কিছু সময়ের জন্য অ্যানিমেশন দেখলে ভালই লাগে।  #
#  আমি কিন্তু টম এন্ড জেরীর ভক্ত,এই বয়সেও ।  #
#  এইটা অণুপ্রেরণার একটি উৎস।  #
#  মুভি পোস্টের ব্যাপারে আমি একটু বেশি উদাসীন!   #
# আপ্নের আপাতত চাকরী হারানোর কোন শংকা নাই।  #
# অ্যানিমেশন দেখলে থ্রিলার সাজাইতে সুবিধা হয়।  #
# দেখনের খায়েশটা আরো তীব্র হইল।  #
# শরীরের নাম মহাসহায় যাহা সহাও তাহাই সয়।  #
# সাধারন বিষয়টা না বুঝলে কেমনে চলে..  #
# সচেতনতার বিকল্প নাই...  #
# মানুষকে শিক্ষিত করতে হবে.. #
# সকল স্যাটেলাইট চ্যানেলে ও রেডিও তে সচেতনতামূলক বিজ্ঞাপন থাকতে হবে এবং সবাইকে এর দায়িত্ব নিতে হবে।  #
#  ফরমালিন এমন একটা জিনিস যা আমরা প্রতিদিনই খাচ্ছি।  #
# মন্তব্য ও অনুপ্রেরণা দেয়ার জন্য অসংখ্যা ধন্যবাদ ।  #
# এদের কেউ শিক্ষিত নয় অথবা শিক্ষিত মূর্খ্য ।  #
# আপনার কথা শতভাগ সঠিক যে একজন অপরজনকে বিষ খাওয়াচ্ছে ।  #
# লেখক কে ধন্যবাদ শেয়ার করার জন্য ।  #
#  আপনি যদি পুরো পোস্টটি পড়ে থাকেন, আমি আপনার পাঠের দ্রুততায় মুগ্ধ!  #
#   অসাধারন একজন মানুষকে নিয়ে অসাধারন একটি পোষ্ট সুপ্রিয় মানবী আপু।অনেক ধন্যবাদ।  #
# গণ সচেতনার একটি অসামান্য দিক এবং একজন আদর্শ মানুষ ও তাঁর অসামান্য কীর্তি সম্পর্কে জানলাম।   #
# তিনি সর্বোচ্চ সম্মান পাবারই যোগ্য।   #
# মুভীটা দেখা হয়নি। দেখতে হবে। রিভিউ ভাল লাগছে।  #
#  অসাধারণ একটা ছবি। সারাজীবন মনে রাখার মতো।  #
# দেখছি মুভিটা। তবে টাকা বৃথা যায় নাই আমারো।  #
# আপনার রিভিউ মানেই ভিন্ন রকম।  #
#  পোস্ট টাইটেল ভাল লাগছে ।  #
#  কোরিয়ান মুভি নিয়ে ব্লগে বেশ ইতিবাচক রিভিও দেখা যায়।   #
# "নির্বাক" মুভিটা দেখতে পারেন, যদিও এটা সমকামিতা নিয়ে নয়।  #
# ভাবনার পরিধি বিস্তর হতে সাহায্য করে ছবিটি।   #
# কর্তাব্যক্তিদের শুভবুদ্ধির উদয় হোক। দেশের মানুষ এই করুণ পরিণতি থেকে মুক্তি পাক ।   #
# আমির খান এর অভিনয় ভালো লাগে বেশ ।   #
#  ব্লগে পাইরেটেড ডাউনলোড লিংক দেয়া নীতিমালা বিরুদ্ধ।  #
#  ছবিটি আমি দেখেছি! আসলেই অসাধারণ নির্মাণশেলী...!!  #
# অন্যতম ফেভারিট রোম্যান্টিক মুভি।  #
# এদের কে যুদ্ধপরাধের দায়ে নয় বরং মানবতাবিরোধি অপরাধে শাস্তি দেয়া হচ্ছে। যুদ্ধপরাধের বিচার বঙ্গবন্ধু অনেক আগেই করেছেন।সবাইকে ক্ষমা করে দিয়ে।  #
# এসব যে সাজানো গোছানো নাটক তা সকলেই জানে।  #
# আপনাকে ধন্যবাদ এই সময়োপযোগী পোস্ট দেওয়ার জন্য।  #
# বাংলাদেশের প্রধানমন্ত্রী পদটির ধর্ম আছে। গোয়েন্দা কর্মকর্তা পদেরও ধর্ম আছে। এমনকি বিচারকও। দেশটির অধিকাংশ মানুষ আগে ধার্মিক, পরে মানুষ।  #
# এমনকি বিচারের রায়ে পর্যন্ত বিচারককে ধর্মের পক্ষে কথা বলতে হয়েছে।  #
# বেচারা বিচারকদের কথা ভেবেই ত খুব আমার খুব মায়া হচ্ছে।  #
# জংগী যদি নাইই থাকে তাহলে জংগী নামে কাদের গ্রেফতার করা হয়?   #
# পশ্চীমেরও কোন দেশ মনে হয় না তাদের দেশে জংগী নেই বলে দাবী করবে।   #
# দেশে থেকে আর্মির বিরুদ্ধে কিছু বলা মানে যেচে বিপদ ডেকে আনা।  #
#  ডলারের বিপরীতে ভারতীয় মুদ্রার মান কমেছে।  #
#  ভারতেও মুক্তমনাদের ধরে ধরে খুন করে, সংখ্যালঘু দের উপর অত্যাচার হয়। এরপরেও ভারত উন্নয়ন করছে, আমরা কেন পারব না?  #
#  অস্ট্রেলিয়াতে প্রায় অর্ধেক মানুষ নাস্তিক।  #
#  অনেক অনেক ধন্যবাদ। খুবই গোছানো এবং স্পষ্ট একটা ব্যাখ্যা দিলেন।   #
#  মুক্তমনায় অনেকদিন পর নাস্তিকতার পক্ষে একটি লৌহদৃঢ় পোস্টের দেখা পেলাম।   #
#  মুক্তমনা আবার হয়ত ধীরেধীরে তার স্বরূপ ফিরে পাবে এই বিশ্বাস আপনার লেখা পড়বার পর আরো দৃঢ় হল।  #
# আমি মনে করি, উগ্র নাস্তিক আমরা এখনো হতে পারি নি।   #
# যুগ যুগ ধরে যে মানব ধর্ম পালন করে আসছি সেটা ভুলে যাই।   #
# আমার মনে হয় এই সব নারী বাদের আসল উদ্দেশ্য হলো ভোগবাদের প্রসার ঘটানো এবং পুজিপতিদের মুনাফা বৃদ্ধি করা।   #
# বাংলায় র‍্যাডিকাল নারীবাদের ব্যাপ্তি খুবই কম ।  #
# আমার মনে হয় না পশ্চিমে এরা মারামারি করছে বলেই সেটাকে মডেল ধরে বাংলাদেশেও আমাদের মারামারি বাঁধানো উচিত।  #
# সবার আগে এই মুক্তচিন্তা বিরোধী মানসিকতার বিরুদ্ধে আওয়াজ তলা দরকার।  #
#  চিন্তার জগতে দ্বন্দ্ব থাকবেই।  #
#  নারীবাদ বা র‍্যাডিক্যাল নারীবাদের পক্ষে বা বিপক্ষে কথা বলা পরের কথা, সবার আগে এই মুক্তচিন্তা বিরোধী মানসিকতার বিরুদ্ধে আওয়াজ তলা দরকার।  #
# এরকম লেখার অপেক্ষায় অনেকদিন ছিলাম।  #
# ডকিন্স এর ব্যাপারটায় একমত ।   #
# সমকামীদের বিয়ের পক্ষে কথা বলেছেন, তো সেরেছে।  #
#  আপনার সন্তান যদি সমকামী হয়, মেনে নিতে পারবেন?  #
# মুক্তমনায় স্বাগতম মাসুম। আশাকরি নিয়মিত লিখবেন।  #
# আমার সন্তান ভালবেসে কাউকে জীবনসহচর হিসেবে বেছে নিলে আমি তাতে পূর্ণ সমর্থন দিবো।   #
# যারা আজকে মানতে পারছে না তারাও একদিন এটা সমর্থন দিবে।  #
# সময় উপযোগী একটি লেখা উপহার দেওয়ার জন্য ধন্যবাদ।  #
# রক্ত নিলে বা দিলেও এইডস ছড়াতে পারে।   #
# তথ্যবহুল লেখাটা পড়ে ভালো লাগল। আরো ভালো কিছুর অপেক্ষায় রইলাম।  #
#  মুক্তমনা’র ব্যানারটি বাংলা ভাষার পুরো কমিউনিটি ব্লগকেই চমকে দিয়েছে।  #
# মাসুম বাবুর লেখাটি ও তাঁর লেখার বিষয় বস্তু ভালই লাগলো ।  #
#  আমাদে সমাজ জীবনে ও ব্যাক্তি জীবনে এমন কিছু ধ্রুব সত্য আছে যা গোপনেই বাস ।  #
# অসাধারণ বললেও কম বলা হয়!  #
# আসলে মুক্তমনার একটা সিলেকশন পলিশি থাকা দরকার।   #
# বিগ ডাটা জিনিসটাকে আমি প্রচন্ড সন্দেহের চোখে দেখি।  #
# তথ্যপ্রযুক্তির সাহায্যে মানুষের ক্ষমতায়ন হয়েছে কিন্তু পার্সোনাল কম্পিউটার আবিষ্কারের পরে।   #
#  আমি আপনার সঙ্গে একমত।   #
# নতুন ভাবনার খোরাক দেবার জন্য ধন্যবাদ।  #
# আমাদের সৃষ্টিশীল মানুষের অভাব নেই ,অভাব নেই বিপ্লব পালদের মত স্বাপ্নিক মানুষদের ।  #
# প্রোগ্রামিং শিখতে গেলে, যে দুইটা জিনিস লাগে তা হলো নিষ্ঠা, আর সততা।   #
#  এই রকম হাজারো দেশদ্রোহিরা আজ কাল ক্ষমতার প্রভাবে আমাদের সমাজে মগডালে বসে আছে।  #
#  যারা ধর্ম ব্যবসা করে তাদের থেকে সতর্ক থাকা সুস্থতা মনে করি, কারণ এরা মানুষের সারল্য’কে ব্যবহার করে ফায়দা লুটে।  #
#  বাংলাদেশ হোক একটি প্রগতি নির্ভর সুন্দর দেশ।  #
#  মানুষের সাথে ঈশ্বরের সম্পর্ক শুধুমাত্র আর একমা্র হৃদয়ের ।   #
# স্বাধীন মত প্রকাশের সংস্কৃতি গড়ার জন্যে বিজ্ঞান লেখক আর প্রকাশকদের নিরাপদে লেখার পরিবেশ তৈরির বিকল্প নেই।  #
# বাবরি মসজিদের ঘটনা এই অঞ্চলের মানুষের মন থেকে বিস্মৃতি হয় নি।  #
#  সব ক্ষেত্রেই এখন সংখ্যালঘুরা ভাল করছে।  #
# আমাদের আর হিন্দু মুসলমান ভেদাভেদ নিয়ে পরে থাকলে চলবে না।  #
# এমন একটা দিন দেখতে চাই যেদিন সব মানুষ সমান হবে৷ ভেদাভেদ বলে কিছু থাকবে না৷  #
# এভাবেই ছড়িয়ে যাক মুক্তমনাদের আন্দোলন এবং সংগ্রাম দেশে-বিদেশে এবং বাংলার আনাচে-কানাচে।  #
# জাতিসংঘের সরাসরি সাহায্য চাই আমরা।  #
# এই বক্তব্যটি অনেকটা কাজ দেবে।  #
# কত কষ্টের জীবন আপনার শুধু ওই উঁচুগলায় সত্যকথা বলার জন্যে এবং কারো সাথে আপোষ না করার জন্যে.  #
# তোমার এই বাড়িটাই আমি গিয়েছিলাম সেই যে বছর World PoetrP তে কোলকাতা গেলুম ।  #
# আঁতেল কলকাতাবাসীর দুর্ভাগ্য যে আপনার মতন মানুষকে কাছে পেয়েও ঠেলে দূরে সরিয়ে দিল!  #
# প্রত্যেক দিন বিকেলবেলা বা সন্ধ্যেবেলা বেরিয়ে যাওয়ার সময় আমার বিছানার হালও এমন হয়।তবে তোমারটা একটু বেশি।  #
#  গুরু তোমার তো একজন দেখাশোনার লোক লাগে তাই না..? আমি সেই দায়িত্ব নিতে চাই।  #
# ভালই হল ৷ বাংলা ও বাঙ্গালীর সাথে বসবাস ৷ নতুন বই হবে তো, দিদি ?  #
# হিন্দি তো পড়তে পারিনা...সম্ভবত অসহিস্নুতা নিয়ে লেখা। তবে এই ছবির ব্যাপারে আর নতুন করে কি বলব? এই ছবিতে হয়তো গভীর জ্ঞানের অধিকারণী বলে মনে হয়, তাই এই ছবিকেই বেঁছে নেয় বার বার। # #
# বাংলাদেশের বন্ধুদের কথা ছেড়ে দিলাম।তারা হিন্দি পড়তে পারে না,সেটাই স্বাভাবিক।কিন্তু আমার দেশের বন্ধুরা---হিন্দি পড়তে পারেন না?হিন্দি,আমাদের রাষ্ট্রভাষা।তাই না?  #
# আপনার চেহারাএত সুনদর জানি না তোমার মন টা কত সুনদর।  #
# তুমি জীবনের মুল্য সেদিন পাবে যেদিন দেখবে সবাই তরি গরি করে কবরে নামাচ্ছ,  এক মাত্র আল্লাহ ছাড়া কেও সেদিন তোমাকে রখ্খা করার থাকবেনা, তাই আল্লাহ কে ভয় কর।  #
# " খুব সুন্দর বাচ্চা । . "ইয়া সৃষ্টি জগতের মালিক আল্লাহ্"!!! তুমি এই বাচ্চাটিকে দীর্ঘজীবি দান করো !!!  #
# আমার গ্রামের নাম নারায়ন পুর। লক্ষ্মীপুর জেলার রামগঞ্জ উপজেলায় অবস্থিত।  #
# অন্যায়, অজ্ঞানতা, কুসংস্কার আর ধর্মান্ধতার বিরুদ্ধে এই লড়াই-এ মুক্তমনার পাশে আছি।  #
# হুদাই মুক্তিযুদ্ধ নিয়ে পড়ে থাকেন, এখনকার সমস্যা নিয়ে কথা বলেন না কেন ?  #
# আরেকবার চেক করে নে।  #
# এই ছবিগুলোই আমার আসল পরিচয়, যেই প্রশব বেদনায় বাংলাদেশ জন্ম নিয়েছিল সেই বেদনা আমরা ভুলে গেছি! মনে করিয়ে দেয়ার জন্য ধন্যবাদ।  #
# পূর্বতন ঘোষণা মতোই, লগ ইন করবার জন্য কেবলমাত্র আপনার ইমেল ঠিকানা ব্যবহার করুন।   #
# মুক্তমনা মানে হচ্ছে যার যেটা মনে আসবে, সেটা প্রকাশ করতে পারা। সেটা যদি আপনার মনে কষ্ট দিয়ে থাকে তাহলে কিছুই করার নেই কারণ যে যে কথাই বলুক, কারো না কারো কষ্ট তাতে লাগবেই।  #
# আপনারা নিশ্চয় চাননা ধরে ধরে বুঝিয়ে সমস্ত মানুষকে নাস্তিকতায় কনভার্ট করতে।  #
# রিয়াল মাদ্রিদ এখন বিশ্বের সেরা ক্লাব। তারা এবার ট্রেবল জিতবে।  #
