1000
53 28 74
30 64 56
98 85 38
9 67 98
35 9 73
8 20 80
86 15 32
6 36 66
72 17 12
0 55 55
31 9 97
93 26 48
34 98 65
4 92 13
51 37 95
84 90 42
91 59 33
12 71 89
0 10 42
34 85 73
58 58 81
49 47 74
78 13 34
75 68 11
13 15 91
46 69 58
23 74 80
40 87 59
26 20 90
56 43 8
81 40 43
97 40 88
22 54 16
96 95 29
84 79 64
75 97 59
99 3 95
60 100 78
78 28 94
54 6 54
2 72 59
35 62 33
0 34 29
20 56 46
52 69 42
57 26 71
58 90 100
53 85 73
61 29 41
97 88 98
99 91 5
18 82 44
4 86 31
52 10 20
70 44 46
38 8 35
87 37 94
29 21 13
29 42 62
82 89 7
71 76 48
47 25 9
22 14 70
7 72 10
0 39 48
76 7 28
37 43 86
56 48 75
33 36 11
90 48 65
75 9 23
69 11 77
81 45 30
46 25 23
75 79 54
61 58 61
51 9 46
84 30 23
76 10 62
64 85 30
100 70 91
11 30 40
61 53 3
0 33 60
54 84 77
61 85 22
28 11 21
5 19 45
6 53 79
28 95 98
57 59 38
4 11 83
35 81 8
66 92 12
59 43 87
97 87 65
66 25 14
57 41 42
36 42 44
47 66 68
46 59 25
69 26 21
10 22 75
47 8 15
100 74 54
3 31 48
88 56 9
96 23 79
1 7 59
87 63 16
43 82 18
25 18 17
63 38 11
17 31 57
99 97 98
17 53 33
47 88 70
43 72 63
53 100 79
88 17 100
16 86 48
70 57 74
85 85 71
13 99 9
100 64 45
47 2 34
24 60 67
11 32 65
52 23 15
57 85 91
53 48 96
91 83 54
76 84 67
83 53 23
100 6 31
0 20 21
30 5 25
5 85 97
58 86 97
46 13 17
1 42 57
8 47 90
41 48 10
37 56 98
74 98 45
93 37 34
17 8 18
60 38 13
73 32 97
100 76 79
19 32 69
7 21 17
16 15 64
18 75 3
83 39 80
78 23 25
100 31 11
24 66 29
77 31 9
42 73 40
39 42 75
58 85 42
6 68 91
55 82 21
50 95 41
59 89 41
77 41 62
99 99 99
55 94 1
31 20 6
23 17 75
62 17 79
53 48 15
98 69 74
60 87 90
22 45 39
34 99 40
79 40 83
71 59 9
13 78 5
75 18 15
34 44 71
68 85 59
95 95 17
17 52 13
24 57 38
28 14 70
13 15 75
6 56 93
92 82 14
60 2 68
90 58 66
68 6 13
9 77 77
67 73 45
44 26 6
23 89 93
70 25 2
52 91 16
95 24 55
94 29 22
47 32 85
2 76 15
14 33 90
97 44 60
44 52 32
23 76 96
60 86 100
28 95 81
13 35 36
100 89 96
83 77 15
95 85 18
97 7 12
11 78 3
7 62 58
74 32 14
12 39 71
69 91 72
25 60 20
16 54 82
75 83 75
67 83 21
94 13 95
38 42 11
39 62 100
34 16 89
77 21 90
33 44 96
68 88 5
89 42 1
96 33 27
4 1 83
59 75 48
44 31 91
19 38 41
95 52 21
73 6 68
95 61 13
42 12 84
33 39 73
90 69 60
10 33 56
8 13 21
50 36 93
85 67 94
43 86 20
32 43 54
83 12 56
13 17 1
10 86 69
46 13 25
22 21 46
19 41 36
98 6 75
56 57 34
81 4 75
75 33 74
36 69 53
8 58 1
21 61 42
85 73 67
76 47 70
95 20 58
91 63 31
46 26 68
35 57 4
87 57 12
72 69 8
2 96 76
48 52 2
53 3 4
32 47 87
1 23 57
16 66 96
19 67 40
69 62 92
36 65 62
95 11 94
62 87 92
78 3 72
42 4 54
3 98 22
14 58 26
30 15 68
20 73 83
46 100 80
79 6 30
23 34 79
82 79 96
23 65 87
95 88 7
32 67 10
90 67 82
46 60 87
48 39 20
17 37 79
96 44 13
72 83 63
73 94 6
67 60 99
79 87 63
98 85 64
21 66 14
53 86 23
5 5 86
53 52 65
57 75 18
44 4 23
58 99 46
55 80 45
23 36 86
61 9 64
95 23 15
61 71 58
20 60 75
70 91 100
8 67 44
91 9 77
38 3 52
0 27 62
59 75 32
45 19 56
49 73 97
99 95 91
50 91 58
85 16 71
28 100 1
64 16 62
64 81 11
53 80 34
91 10 23
77 18 99
26 2 42
100 33 89
13 46 10
60 34 72
41 5 75
82 77 39
1 81 66
97 82 93
37 73 10
58 20 9
79 70 92
77 46 25
49 22 17
51 16 84
22 95 30
1 52 5
64 76 28
30 41 28
68 94 26
5 97 10
8 2 87
55 4 97
49 34 10
53 92 12
44 95 98
5 47 9
71 28 4
50 66 61
84 48 1
38 4 40
94 73 33
70 72 24
72 73 82
49 86 5
1 97 39
44 71 96
10 38 38
67 45 63
75 53 41
81 16 88
84 69 3
34 67 6
92 3 36
67 53 15
10 33 33
99 92 60
38 4 1
34 78 66
10 28 72
21 89 97
3 19 75
21 6 39
58 36 22
56 83 72
52 29 5
41 85 37
73 67 79
15 48 19
35 64 17
73 9 85
35 55 63
91 88 3
24 26 19
13 62 100
28 9 52
77 88 1
51 57 31
89 37 94
59 78 24
38 87 35
30 44 90
1 94 5
94 75 65
63 90 6
96 46 9
8 78 93
29 35 24
1 22 6
40 5 31
80 94 17
88 45 37
28 62 38
4 38 5
10 22 55
49 42 78
73 100 14
75 46 17
18 95 60
0 71 40
27 23 72
63 18 95
97 44 64
100 1 1
31 37 19
20 28 98
30 86 56
52 79 95
33 55 85
0 65 91
23 70 19
7 68 97
57 52 31
41 58 27
11 45 47
79 8 72
1 87 21
23 5 33
55 93 15
69 44 38
75 91 13
96 28 17
63 43 23
4 25 17
57 87 8
13 9 38
1 23 28
81 58 33
42 7 15
9 100 8
15 72 4
0 30 70
21 17 22
71 35 27
57 92 78
76 78 55
95 92 84
86 54 55
22 15 99
88 58 41
20 39 43
73 81 29
42 58 87
28 58 46
14 84 31
91 86 32
84 24 17
2 42 20
1 28 70
91 63 85
18 69 54
56 6 32
34 74 94
93 8 68
55 71 19
15 73 20
66 68 37
84 79 48
0 68 90
87 15 84
87 20 40
67 67 62
18 22 25
31 3 8
10 67 92
73 81 87
37 33 18
55 68 37
79 94 60
60 98 27
29 81 85
1 74 53
46 60 37
73 91 41
19 59 93
56 80 4
40 79 88
60 83 20
31 15 100
86 41 9
50 22 86
9 3 8
88 27 3
77 67 94
79 13 6
12 33 57
86 98 75
5 4 81
55 94 47
98 87 25
94 30 1
82 98 10
85 93 63
72 84 72
75 56 53
5 47 66
84 74 99
91 74 34
35 99 22
96 80 66
64 38 29
67 1 56
8 59 6
74 13 7
57 71 100
67 7 97
76 9 32
53 70 66
21 99 3
61 11 97
60 81 24
65 18 82
96 2 72
24 84 57
42 65 78
13 28 46
17 42 4
12 72 15
63 73 6
79 48 79
57 14 13
45 70 62
29 16 45
93 73 82
63 42 23
95 33 26
67 10 77
74 35 78
21 53 4
39 72 57
33 70 76
58 91 89
74 27 60
42 67 14
8 31 78
98 80 87
2 47 93
82 2 69
55 47 53
100 68 14
18 57 73
73 44 1
35 43 32
17 78 67
50 22 39
24 81 77
42 13 34
44 68 69
47 66 45
73 35 23
23 58 58
54 99 95
11 73 54
37 87 8
2 35 88
75 69 6
66 96 69
61 87 41
31 9 91
91 65 22
8 100 13
0 2 42
12 55 55
4 45 66
5 34 58
50 42 68
66 30 100
51 61 55
54 13 86
75 55 81
41 32 82
58 16 65
50 69 97
19 53 6
13 69 20
43 47 33
86 33 83
97 61 94
13 64 42
82 56 91
60 57 42
26 4 85
47 27 8
10 9 17
47 74 14
100 60 84
0 99 43
16 96 54
35 72 76
38 13 25
99 10 38
51 22 21
28 1 34
47 39 84
85 73 70
92 40 17
8 90 85
65 34 26
61 63 52
32 81 7
11 99 92
77 65 16
59 46 2
94 30 5
36 41 40
76 82 99
12 98 95
90 77 46
28 81 52
83 27 46
45 83 96
13 47 81
38 92 85
71 87 7
70 35 42
66 96 69
81 14 29
89 86 90
99 77 4
30 83 16
87 81 48
89 11 13
16 48 34
54 73 68
27 6 1
50 96 59
25 55 35
0 20 25
54 18 72
0 44 99
37 33 85
32 96 39
57 76 73
69 39 59
17 17 24
49 35 2
3 83 27
67 77 35
97 14 17
38 15 17
1 45 6
39 5 87
16 10 4
78 100 69
28 88 81
78 31 43
6 26 84
14 65 87
20 41 6
7 55 65
74 86 76
45 12 15
71 75 75
53 6 61
7 25 48
100 66 13
93 91 57
51 66 33
93 79 38
13 98 74
52 79 8
29 37 5
21 1 14
82 97 70
38 91 22
19 87 86
87 78 17
25 23 43
63 5 13
6 74 32
10 55 27
82 87 30
98 39 27
64 15 25
19 71 93
52 58 41
100 55 38
27 65 77
38 55 3
38 36 53
78 21 43
27 69 53
49 43 41
31 43 35
38 18 100
78 71 68
38 6 39
48 77 79
19 23 85
76 21 60
26 91 40
7 13 7
96 100 18
54 83 44
97 81 53
43 24 79
19 90 69
100 35 40
46 74 16
14 46 40
37 54 52
51 26 61
69 3 81
22 20 89
42 91 58
16 12 2
0 92 67
33 20 79
9 72 95
67 23 25
89 48 39
51 32 31
7 29 92
5 100 52
92 10 71
84 93 54
20 11 46
95 62 96
46 4 73
70 29 55
7 38 80
56 56 52
43 44 59
22 42 25
7 95 21
70 93 6
12 100 82
45 58 69
52 44 12
94 29 61
6 37 12
59 19 85
12 85 59
75 93 5
48 48 69
6 10 20
61 55 7
43 99 74
58 63 62
18 89 10
4 8 40
38 20 36
9 76 39
25 69 7
74 86 67
78 84 95
83 45 78
8 61 3
81 8 37
43 48 99
47 12 95
13 94 70
32 27 27
7 13 96
67 45 84
75 76 37
34 27 91
37 2 41
47 52 75
34 29 29
30 65 81
28 44 77
74 24 4
53 76 77
90 70 34
61 89 91
99 61 22
48 21 33
91 22 82
70 87 37
31 46 91
35 55 45
61 95 87
34 66 96
61 56 2
100 47 93
17 46 54
87 22 56
32 74 85
33 12 86
90 72 20
1 12 64
41 26 27
3 40 45
80 15 95
46 38 10
33 6 28
56 1 93
41 97 68
77 23 24
35 22 38
49 2 81
99 41 62
91 47 20
16 43 68
2 94 46
71 83 38
74 3 72
5 98 52
2 67 55
79 91 11
99 26 64
56 84 29
48 55 54
78 92 39
91 2 11
50 20 90
82 24 95
19 95 1
55 83 24
32 60 75
76 58 19
95 22 15
80 80 99
33 69 55
5 95 26
5 92 68
7 34 65
52 56 84
46 18 82
98 31 67
67 60 11
25 61 69
10 32 14
61 12 61
5 77 3
93 24 72
34 78 21
6 27 73
83 62 4
68 45 5
22 2 57
4 57 29
91 86 25
22 4 96
21 52 78
84 98 55
80 5 56
13 55 55
85 68 41
16 20 13
64 88 26
20 2 14
75 18 61
16 11 38
7 83 47
17 6 40
88 40 84
45 61 96
33 60 68
73 66 59
79 100 64
75 96 31
4 64 60
85 2 99
14 81 78
85 70 9
51 76 26
34 72 48
74 32 16
29 25 59
59 96 91
32 38 20
11 69 57
86 7 52
88 7 40
6 54 76
38 27 52
57 27 68
64 96 55
76 27 10
88 55 34
38 18 74
47 1 94
97 10 91
36 87 6
47 92 81
41 88 72
31 11 66
21 94 36
91 2 12
64 70 73
78 53 78
54 53 91
38 100 15
100 23 20
4 47 1
39 68 89
26 54 1
25 93 2
65 77 35
75 31 59
80 78 67
61 18 70
94 62 11
84 70 75
86 23 47
2 77 57
68 63 40
87 5 14
13 62 69
16 58 42
73 29 39
37 92 57
16 93 89
6 57 10
15 81 30
86 89 75
68 31 60
42 67 86
66 15 25
20 46 39
85 7 21
92 4 28
12 88 91
52 71 98
92 31 9
35 8 16
19 32 19
25 85 66
22 75 38
87 47 83
98 29 77
24 89 95
25 25 97
17 55 29
48 62 3
91 77 63
12 65 66
64 25 83
98 57 37
61 88 67
32 77 66
45 62 57
61 6 25
91 41 56
52 36 12
36 98 30
66 69 9
67 43 16
17 2 33
67 43 20
98 100 65
32 46 61
6 23 99
10 5 43
16 97 9
94 30 67
97 76 47
47 71 80
67 95 83
77 83 58
60 24 94
54 98 4
67 19 16
27 23 13
19 57 99
79 12 10
29 72 80
67 5 11
49 97 30
100 37 76
6 54 76
17 63 22
41 98 74
35 71 80
56 44 57
20 46 23
30 61 23
40 29 7
80 70 89
0 57 27
80 53 38
76 41 73
28 13 37
48 100 7
30 25 5
70 67 75
